[
  {
    "nombre": "fondo",
    "ancho": 1024,
    "alto": 768,
    "x": 0,
    "y": 0,
    "posiciones": [
      {
        "x": 0,
        "y": 0
      }
    ]
  },
  {
    "nombre": "fondo_2",
    "ancho": 1024,
    "alto": 768,
    "x": 1024,
    "y": 0,
    "posiciones": [
      {
        "x": 0,
        "y": 0
      }
    ]
  },
  {
    "nombre": "auch_2",
    "ancho": 911,
    "alto": 720,
    "x": 0,
    "y": 768,
    "posiciones": [
      {
        "x": -28,
        "y": 45
      }
    ]
  },
  {
    "nombre": "auch_1",
    "ancho": 741,
    "alto": 720,
    "x": 911,
    "y": 768,
    "posiciones": [
      {
        "x": 142,
        "y": 41
      }
    ]
  },
  {
    "nombre": "auch_4",
    "ancho": 743,
    "alto": 713,
    "x": 1652,
    "y": 768,
    "posiciones": [
      {
        "x": 140,
        "y": 45
      }
    ]
  },
  {
    "nombre": "auch_3",
    "ancho": 914,
    "alto": 713,
    "x": 0,
    "y": 1488,
    "posiciones": [
      {
        "x": -28,
        "y": 52
      }
    ]
  },
  {
    "nombre": "lineas_lapiz_1",
    "ancho": 188,
    "alto": 539,
    "x": 914,
    "y": 1488,
    "posiciones": [
      {
        "x": 704,
        "y": 128
      }
    ]
  },
  {
    "nombre": "lapiz_anim_1",
    "ancho": 126,
    "alto": 441,
    "x": 1102,
    "y": 1488,
    "posiciones": [
      {
        "x": 717,
        "y": 211
      }
    ]
  },
  {
    "nombre": "raca_idle_10",
    "ancho": 324,
    "alto": 411,
    "x": 1228,
    "y": 1488,
    "posiciones": [
      {
        "x": 410,
        "y": 170
      }
    ]
  },
  {
    "nombre": "raca_idle_9",
    "ancho": 324,
    "alto": 411,
    "x": 1552,
    "y": 1488,
    "posiciones": [
      {
        "x": 410,
        "y": 170
      }
    ]
  },
  {
    "nombre": "raca_idle_8",
    "ancho": 324,
    "alto": 411,
    "x": 1876,
    "y": 1488,
    "posiciones": [
      {
        "x": 410,
        "y": 170
      }
    ]
  },
  {
    "nombre": "raca_idle_7",
    "ancho": 324,
    "alto": 411,
    "x": 2200,
    "y": 1488,
    "posiciones": [
      {
        "x": 410,
        "y": 170
      }
    ]
  },
  {
    "nombre": "raca_idle_6",
    "ancho": 324,
    "alto": 411,
    "x": 2395,
    "y": 768,
    "posiciones": [
      {
        "x": 410,
        "y": 170
      }
    ]
  },
  {
    "nombre": "raca_idle_5",
    "ancho": 324,
    "alto": 411,
    "x": 2048,
    "y": 0,
    "posiciones": [
      {
        "x": 410,
        "y": 170
      }
    ]
  },
  {
    "nombre": "raca_idle_4",
    "ancho": 324,
    "alto": 411,
    "x": 2372,
    "y": 0,
    "posiciones": [
      {
        "x": 410,
        "y": 170
      }
    ]
  },
  {
    "nombre": "raca_idle_3",
    "ancho": 324,
    "alto": 411,
    "x": 0,
    "y": 2201,
    "posiciones": [
      {
        "x": 410,
        "y": 170
      }
    ]
  },
  {
    "nombre": "raca_idle_2",
    "ancho": 324,
    "alto": 411,
    "x": 324,
    "y": 2201,
    "posiciones": [
      {
        "x": 410,
        "y": 170
      }
    ]
  },
  {
    "nombre": "raca_susto_10",
    "ancho": 215,
    "alto": 409,
    "x": 648,
    "y": 2201,
    "posiciones": [
      {
        "x": 405,
        "y": 172
      }
    ]
  },
  {
    "nombre": "raca_susto_5",
    "ancho": 272,
    "alto": 402,
    "x": 863,
    "y": 2201,
    "posiciones": [
      {
        "x": 376,
        "y": 183
      }
    ]
  },
  {
    "nombre": "raca_susto_12",
    "ancho": 218,
    "alto": 384,
    "x": 1135,
    "y": 2201,
    "posiciones": [
      {
        "x": 403,
        "y": 192
      }
    ]
  },
  {
    "nombre": "raca_susto_1",
    "ancho": 264,
    "alto": 382,
    "x": 1353,
    "y": 2201,
    "posiciones": [
      {
        "x": 380,
        "y": 219
      }
    ]
  },
  {
    "nombre": "raca_susto_9",
    "ancho": 257,
    "alto": 380,
    "x": 1617,
    "y": 2201,
    "posiciones": [
      {
        "x": 384,
        "y": 219
      }
    ]
  },
  {
    "nombre": "raca_susto_4",
    "ancho": 244,
    "alto": 368,
    "x": 1874,
    "y": 2201,
    "posiciones": [
      {
        "x": 390,
        "y": 209
      }
    ]
  },
  {
    "nombre": "raca_susto_6",
    "ancho": 256,
    "alto": 367,
    "x": 2118,
    "y": 2201,
    "posiciones": [
      {
        "x": 384,
        "y": 219
      }
    ]
  },
  {
    "nombre": "raca_susto_11",
    "ancho": 199,
    "alto": 353,
    "x": 2374,
    "y": 2201,
    "posiciones": [
      {
        "x": 413,
        "y": 235
      }
    ]
  },
  {
    "nombre": "raca_susto_8",
    "ancho": 316,
    "alto": 345,
    "x": 2048,
    "y": 411,
    "posiciones": [
      {
        "x": 354,
        "y": 246
      }
    ]
  },
  {
    "nombre": "raca_susto_3",
    "ancho": 246,
    "alto": 338,
    "x": 2364,
    "y": 411,
    "posiciones": [
      {
        "x": 389,
        "y": 242
      }
    ]
  },
  {
    "nombre": "raca_idle_1",
    "ancho": 352,
    "alto": 338,
    "x": 0,
    "y": 2612,
    "posiciones": [
      {
        "x": 396,
        "y": 206
      }
    ]
  },
  {
    "nombre": "raca_susto_7",
    "ancho": 290,
    "alto": 334,
    "x": 352,
    "y": 2612,
    "posiciones": [
      {
        "x": 367,
        "y": 248
      }
    ]
  },
  {
    "nombre": "raca_susto_2",
    "ancho": 258,
    "alto": 321,
    "x": 642,
    "y": 2612,
    "posiciones": [
      {
        "x": 383,
        "y": 262
      }
    ]
  },
  {
    "nombre": "lapiz_anim_2",
    "ancho": 417,
    "alto": 306,
    "x": 900,
    "y": 2612,
    "posiciones": [
      {
        "x": 572,
        "y": 278
      }
    ]
  },
  {
    "nombre": "lapiz_anim_3",
    "ancho": 175,
    "alto": 258,
    "x": 1317,
    "y": 2612,
    "posiciones": [
      {
        "x": 693,
        "y": 302
      }
    ]
  },
  {
    "nombre": "lineas_silbato_!",
    "ancho": 243,
    "alto": 256,
    "x": 1492,
    "y": 2612,
    "posiciones": [
      {
        "x": 36,
        "y": 176
      }
    ]
  },
  {
    "nombre": "apertura_ojo",
    "ancho": 226,
    "alto": 219,
    "x": 1735,
    "y": 2612,
    "posiciones": [
      {
        "x": 325,
        "y": 85
      }
    ]
  },
  {
    "nombre": "clip_idle_1",
    "ancho": 192,
    "alto": 161,
    "x": 1961,
    "y": 2612,
    "posiciones": [
      {
        "x": 685,
        "y": 47
      }
    ]
  },
  {
    "nombre": "silbato_anim_4",
    "ancho": 183,
    "alto": 115,
    "x": 2153,
    "y": 2612,
    "posiciones": [
      {
        "x": 99,
        "y": 253
      }
    ]
  },
  {
    "nombre": "silbato_anim_2",
    "ancho": 183,
    "alto": 115,
    "x": 2336,
    "y": 2612,
    "posiciones": [
      {
        "x": 99,
        "y": 253
      }
    ]
  },
  {
    "nombre": "p6_brillo_4",
    "ancho": 197,
    "alto": 105,
    "x": 2519,
    "y": 2612,
    "posiciones": [
      {
        "x": 263,
        "y": 517
      }
    ]
  },
  {
    "nombre": "clim_anim_2",
    "ancho": 138,
    "alto": 104,
    "x": 2573,
    "y": 2201,
    "posiciones": [
      {
        "x": 724,
        "y": 101
      }
    ]
  },
  {
    "nombre": "silbato_anim_5",
    "ancho": 178,
    "alto": 102,
    "x": 2524,
    "y": 1488,
    "posiciones": [
      {
        "x": 101,
        "y": 253
      }
    ]
  },
  {
    "nombre": "silbato_anim_3",
    "ancho": 178,
    "alto": 102,
    "x": 2524,
    "y": 1590,
    "posiciones": [
      {
        "x": 101,
        "y": 253
      }
    ]
  },
  {
    "nombre": "silbato_anim_1",
    "ancho": 178,
    "alto": 102,
    "x": 2524,
    "y": 1692,
    "posiciones": [
      {
        "x": 101,
        "y": 253
      }
    ]
  },
  {
    "nombre": "pieza_anim_1",
    "ancho": 66,
    "alto": 101,
    "x": 2610,
    "y": 411,
    "posiciones": [
      {
        "x": 435,
        "y": 544
      }
    ]
  },
  {
    "nombre": "pieza_anim_5",
    "ancho": 60,
    "alto": 99,
    "x": 2676,
    "y": 411,
    "posiciones": [
      {
        "x": 438,
        "y": 545
      }
    ]
  },
  {
    "nombre": "vela_anim_7",
    "ancho": 39,
    "alto": 96,
    "x": 2702,
    "y": 1692,
    "posiciones": [
      {
        "x": 371,
        "y": 262
      }
    ]
  },
  {
    "nombre": "ojo_anim1_6",
    "ancho": 70,
    "alto": 95,
    "x": 2610,
    "y": 512,
    "posiciones": [
      {
        "x": 409,
        "y": 132
      }
    ]
  },
  {
    "nombre": "ojo_anim1_5",
    "ancho": 68,
    "alto": 95,
    "x": 2610,
    "y": 607,
    "posiciones": [
      {
        "x": 410,
        "y": 122
      }
    ]
  },
  {
    "nombre": "ojo_anim2_4",
    "ancho": 197,
    "alto": 95,
    "x": 2524,
    "y": 1794,
    "posiciones": [
      {
        "x": 404,
        "y": 118
      }
    ]
  },
  {
    "nombre": "vela_anim_6",
    "ancho": 38,
    "alto": 93,
    "x": 2678,
    "y": 607,
    "posiciones": [
      {
        "x": 371,
        "y": 264
      }
    ]
  },
  {
    "nombre": "vela_anim_5",
    "ancho": 38,
    "alto": 93,
    "x": 2680,
    "y": 512,
    "posiciones": [
      {
        "x": 371,
        "y": 264
      }
    ]
  },
  {
    "nombre": "vela_anim_4",
    "ancho": 39,
    "alto": 93,
    "x": 2702,
    "y": 1590,
    "posiciones": [
      {
        "x": 371,
        "y": 264
      }
    ]
  },
  {
    "nombre": "vela_anim_3",
    "ancho": 38,
    "alto": 93,
    "x": 2702,
    "y": 1488,
    "posiciones": [
      {
        "x": 371,
        "y": 264
      }
    ]
  },
  {
    "nombre": "ojo_anim1_9",
    "ancho": 68,
    "alto": 92,
    "x": 2573,
    "y": 2305,
    "posiciones": [
      {
        "x": 410,
        "y": 133
      }
    ]
  },
  {
    "nombre": "ojo_anim1_8",
    "ancho": 60,
    "alto": 92,
    "x": 2641,
    "y": 2305,
    "posiciones": [
      {
        "x": 414,
        "y": 133
      }
    ]
  },
  {
    "nombre": "pieza_anim_2",
    "ancho": 66,
    "alto": 91,
    "x": 2573,
    "y": 2397,
    "posiciones": [
      {
        "x": 435,
        "y": 549
      }
    ]
  },
  {
    "nombre": "rompe_1",
    "ancho": 90,
    "alto": 91,
    "x": 2639,
    "y": 2397,
    "posiciones": [
      {
        "x": 606,
        "y": 115
      }
    ]
  },
  {
    "nombre": "pieza_anim_8",
    "ancho": 66,
    "alto": 88,
    "x": 1102,
    "y": 1929,
    "posiciones": [
      {
        "x": 435,
        "y": 551
      }
    ]
  },
  {
    "nombre": "pieza_anim_3",
    "ancho": 66,
    "alto": 87,
    "x": 1168,
    "y": 1929,
    "posiciones": [
      {
        "x": 435,
        "y": 551
      }
    ]
  },
  {
    "nombre": "vela_anim_2",
    "ancho": 36,
    "alto": 85,
    "x": 1234,
    "y": 1929,
    "posiciones": [
      {
        "x": 372,
        "y": 268
      }
    ]
  },
  {
    "nombre": "vela_anim_1",
    "ancho": 27,
    "alto": 84,
    "x": 1270,
    "y": 1929,
    "posiciones": [
      {
        "x": 377,
        "y": 268
      }
    ]
  },
  {
    "nombre": "pieza_anim_4",
    "ancho": 66,
    "alto": 81,
    "x": 1297,
    "y": 1929,
    "posiciones": [
      {
        "x": 435,
        "y": 554
      }
    ]
  },
  {
    "nombre": "p6_brillo_3",
    "ancho": 177,
    "alto": 78,
    "x": 1363,
    "y": 1929,
    "posiciones": [
      {
        "x": 273,
        "y": 531
      }
    ]
  },
  {
    "nombre": "pieza_anim_7",
    "ancho": 65,
    "alto": 77,
    "x": 1540,
    "y": 1929,
    "posiciones": [
      {
        "x": 436,
        "y": 556
      }
    ]
  },
  {
    "nombre": "pieza_anim_6",
    "ancho": 66,
    "alto": 77,
    "x": 1605,
    "y": 1929,
    "posiciones": [
      {
        "x": 435,
        "y": 556
      }
    ]
  },
  {
    "nombre": "ojo_anim1_7",
    "ancho": 59,
    "alto": 72,
    "x": 1671,
    "y": 1929,
    "posiciones": [
      {
        "x": 415,
        "y": 143
      }
    ]
  },
  {
    "nombre": "ojo_anim1_10",
    "ancho": 72,
    "alto": 54,
    "x": 1730,
    "y": 1929,
    "posiciones": [
      {
        "x": 408,
        "y": 152
      }
    ]
  },
  {
    "nombre": "p6_brillo_2",
    "ancho": 150,
    "alto": 54,
    "x": 1802,
    "y": 1929,
    "posiciones": [
      {
        "x": 286,
        "y": 543
      }
    ]
  },
  {
    "nombre": "p6_brillo_1",
    "ancho": 132,
    "alto": 53,
    "x": 1952,
    "y": 1929,
    "posiciones": [
      {
        "x": 295,
        "y": 543
      }
    ]
  },
  {
    "nombre": "ojo_anim1_11",
    "ancho": 65,
    "alto": 49,
    "x": 2084,
    "y": 1929,
    "posiciones": [
      {
        "x": 412,
        "y": 155
      }
    ]
  },
  {
    "nombre": "ojo_anim1_13",
    "ancho": 62,
    "alto": 46,
    "x": 2149,
    "y": 1929,
    "posiciones": [
      {
        "x": 413,
        "y": 156
      }
    ]
  },
  {
    "nombre": "ojo_anim1_12",
    "ancho": 61,
    "alto": 42,
    "x": 2211,
    "y": 1929,
    "posiciones": [
      {
        "x": 414,
        "y": 158
      }
    ]
  },
  {
    "nombre": "ojo_anim1_3",
    "ancho": 111,
    "alto": 42,
    "x": 2272,
    "y": 1929,
    "posiciones": [
      {
        "x": 389,
        "y": 158
      }
    ]
  },
  {
    "nombre": "ojo_anim1_1",
    "ancho": 113,
    "alto": 42,
    "x": 2383,
    "y": 1929,
    "posiciones": [
      {
        "x": 388,
        "y": 158
      }
    ]
  },
  {
    "nombre": "ojo_anim1_2",
    "ancho": 106,
    "alto": 37,
    "x": 2496,
    "y": 1929,
    "posiciones": [
      {
        "x": 391,
        "y": 162
      }
    ]
  }
]